…
                     range=cell_cols("A:N")) %>%
  janitor::clean_names() %>%
  drop_na() %>%
  mutate(
    sports_balls = as.integer(round(sports_balls)), 
    year = as.integer(year), 
    dumpster = as.numeric(dumpster), 
    homes_powered = (weight_tons * (500/30)),
    catg = "mr trash wheel") %>%
    # Create a variable catg to help with the combination of the datasets
  select(catg, everything())
mr_trash_wheel
```

    ## # A tibble: 584 × 15
    ##    catg  dumpster month  year date                weight_tons volume_cubic_yards
    ##    <chr>    <dbl> <chr> <int> <dttm>                    <dbl>              <dbl>
    ##  1 mr t…        1 May    2014 2014-05-16 00:00:00        4.31                 18
    ##  2 mr t…        2 May    2014 2014-05-16 00:00:00        2.74                 13
    ##  3 mr t…        3 May    2014 2014-05-16 00:00:00        3.45                 15
    ##  4 mr t…        4 May    2014 2014-05-17 00:00:00        3.1                  15
    ##  5 mr t…        5 May    2014 2014-05-17 00:00:00        4.06                 18
    ##  6 mr t…        6 May    2014 2014-05-20 00:00:00        2.71                 13
    ##  7 mr t…        7 May    2014 2014-05-21 00:00:00        1.91                  8
    ##  8 mr t…        8 May    2014 2014-05-28 00:00:00        3.7                  16
    ##  9 mr t…        9 June   2014 2014-06-05 00:00:00        2.52                 14
    ## 10 mr t…       10 June   2014 2014-06-11 00:00:00        3.76                 18
    ## # ℹ 574 more rows
    ## # ℹ 8 more variables: plastic_bottles <dbl>, polystyrene <dbl>,
    ## #   cigarette_butts <dbl>, glass_bottles <dbl>, plastic_bags <dbl>,
    ## #   wrappers <dbl>, sports_balls <int>, homes_powered <dbl>
…
``` r
professor_trash_wheel = read_excel("./data/202309 Trash Wheel Collection Data.xlsx",
                                   sheet = "Professor Trash Wheel")%>%
                        janitor::clean_names() %>%
                        drop_na(dumpster) %>%
                        mutate(homes_powered = (weight_tons * (500/30)),
                          year=as.integer(year),
                          catg = "prof trash wheel") %>%
  # Create a variable catg to help with the combination of the datasets
  select(catg, everything())
professor_trash_wheel
```

    ## # A tibble: 106 × 14
    ##    catg  dumpster month  year date                weight_tons volume_cubic_yards
    ##    <chr>    <dbl> <chr> <int> <dttm>                    <dbl>              <dbl>
    ##  1 prof…        1 Janu…  2017 2017-01-02 00:00:00        1.79                 15
    ##  2 prof…        2 Janu…  2017 2017-01-30 00:00:00        1.58                 15
    ##  3 prof…        3 Febr…  2017 2017-02-26 00:00:00        2.32                 18
    ##  4 prof…        4 Febr…  2017 2017-02-26 00:00:00        3.72                 15
    ##  5 prof…        5 Febr…  2017 2017-02-28 00:00:00        1.45                 15
    ##  6 prof…        6 March  2017 2017-03-30 00:00:00        1.71                 15
    ##  7 prof…        7 April  2017 2017-04-01 00:00:00        1.82                 15
    ##  8 prof…        8 April  2017 2017-04-20 00:00:00        2.37                 15
    ##  9 prof…        9 May    2017 2017-05-10 00:00:00        2.64                 15
    ## 10 prof…       10 May    2017 2017-05-26 00:00:00        2.78                 15
    ## # ℹ 96 more rows
    ## # ℹ 7 more variables: plastic_bottles <dbl>, polystyrene <dbl>,
    ## #   cigarette_butts <dbl>, glass_bottles <dbl>, plastic_bags <dbl>,
    ## #   wrappers <dbl>, homes_powered <dbl>
…
``` r
gwynnda = read_excel("./data/202309 Trash Wheel Collection Data.xlsx",
                                   sheet = "Gwynnda Trash Wheel")%>%
                        janitor::clean_names() %>%
                        drop_na(dumpster) %>%
                        mutate(homes_powered = (weight_tons * (500/30)),
                          cigarette_butts = as.integer(cigarette_butts),
                          year=as.integer(year),
                          catg = "gwynnda trash wheel") %>%
    # Create a variable catg to help with the combination of the datasets
  select(catg, everything())
gwynnda
```

    ## # A tibble: 155 × 13
    ##    catg  dumpster month  year date                weight_tons volume_cubic_yards
    ##    <chr>    <dbl> <chr> <int> <dttm>                    <dbl>              <dbl>
    ##  1 gwyn…        1 July   2021 2021-07-03 00:00:00        0.93                 15
    ##  2 gwyn…        2 July   2021 2021-07-07 00:00:00        2.26                 15
    ##  3 gwyn…        3 July   2021 2021-07-07 00:00:00        1.62                 15
    ##  4 gwyn…        4 July   2021 2021-07-16 00:00:00        1.76                 15
    ##  5 gwyn…        5 July   2021 2021-07-30 00:00:00        1.53                 15
    ##  6 gwyn…        6 Augu…  2021 2021-08-11 00:00:00        2.06                 15
    ##  7 gwyn…        7 Augu…  2021 2021-08-14 00:00:00        1.9                  15
    ##  8 gwyn…        8 Augu…  2021 2021-08-16 00:00:00        2.16                 15
    ##  9 gwyn…        9 Augu…  2021 2021-08-16 00:00:00        2.6                  15
    ## 10 gwyn…       10 Augu…  2021 2021-08-17 00:00:00        3.21                 15
    ## # ℹ 145 more rows
    ## # ℹ 6 more variables: plastic_bottles <dbl>, polystyrene <dbl>,
    ## #   cigarette_butts <int>, plastic_bags <dbl>, wrappers <dbl>,
    ## #   homes_powered <dbl>
…
    ## cigarette_butts 
    ##           16300

\##Combine these there data to produce a single tidy dataset

``` r
mr_prof_trash_wheel = left_join(mr_trash_wheel, professor_trash_wheel, by = c("dumpster"))
mr_prof_gwynnda_trash_wheel= left_join(mr_prof_trash_wheel,gwynnda , by = c("dumpster"))
mr_prof_gwynnda_trash_wheel
```

    ## # A tibble: 585 × 40
    ##    catg.x         dumpster month.x year.x date.x              weight_tons.x
    ##    <chr>             <dbl> <chr>    <int> <dttm>                      <dbl>
    ##  1 mr trash wheel        1 May       2014 2014-05-16 00:00:00          4.31
    ##  2 mr trash wheel        2 May       2014 2014-05-16 00:00:00          2.74
    ##  3 mr trash wheel        3 May       2014 2014-05-16 00:00:00          3.45
    ##  4 mr trash wheel        4 May       2014 2014-05-17 00:00:00          3.1 
    ##  5 mr trash wheel        5 May       2014 2014-05-17 00:00:00          4.06
    ##  6 mr trash wheel        6 May       2014 2014-05-20 00:00:00          2.71
    ##  7 mr trash wheel        7 May       2014 2014-05-21 00:00:00          1.91
    ##  8 mr trash wheel        8 May       2014 2014-05-28 00:00:00          3.7 
    ##  9 mr trash wheel        9 June      2014 2014-06-05 00:00:00          2.52
    ## 10 mr trash wheel       10 June      2014 2014-06-11 00:00:00          3.76
    ## # ℹ 575 more rows
    ## # ℹ 34 more variables: volume_cubic_yards.x <dbl>, plastic_bottles.x <dbl>,
    ## #   polystyrene.x <dbl>, cigarette_butts.x <dbl>, glass_bottles.x <dbl>,
    ## #   plastic_bags.x <dbl>, wrappers.x <dbl>, sports_balls <int>,
    ## #   homes_powered.x <dbl>, catg.y <chr>, month.y <chr>, year.y <int>,
    ## #   date.y <dttm>, weight_tons.y <dbl>, volume_cubic_yards.y <dbl>,
    ## #   plastic_bottles.y <dbl>, polystyrene.y <dbl>, cigarette_butts.y <dbl>, …
…
    ## Rows: 483 Columns: 6
    ## ── Column specification ────────────────────────────────────────────────────────
    ## Delimiter: ","
    ## chr (1): Age at onset
    ## dbl (5): ID, Current Age, Sex, Education, apoe4
    ## 
    ## ℹ Use `spec()` to retrieve the full column specification for this data.
    ## ℹ Specify the column types or set `show_col_types = FALSE` to quiet this message.

``` r
mci_baseline_df = filter(mci_baseline, age_at_onset == "." | age_at_onset > current_age)
mci_baseline_df
```

    ## # A tibble: 479 × 6
    ##       id current_age sex    education apoe4       age_at_onset
    ##    <dbl>       <dbl> <chr>      <dbl> <chr>       <chr>       
    ##  1     1        63.1 Female        16 Carrier     .           
    ##  2     2        65.6 Female        20 Carrier     .           
    ##  3     3        62.5 Male          16 Carrier     66.8        
    ##  4     4        69.8 Female        16 Non_carrier .           
    ##  5     5        66   Male          16 Non_carrier 68.7        
    ##  6     6        62.5 Male          16 Non_carrier .           
    ##  7     7        66.5 Male          18 Non_carrier 74          
    ##  8     8        67.2 Female        18 Non_carrier .           
    ##  9     9        66.7 Female        16 Non_carrier .           
    ## 10    10        64.1 Female        18 Non_carrier .           
    ## # ℹ 469 more rows
…
    ## Rows: 487 Columns: 6
    ## ── Column specification ────────────────────────────────────────────────────────
    ## Delimiter: ","
    ## chr (5): Baseline, Time 2, Time 4, Time 6, Time 8
    ## dbl (1): Study ID
    ## 
    ## ℹ Use `spec()` to retrieve the full column specification for this data.
    ## ℹ Specify the column types or set `show_col_types = FALSE` to quiet this message.

``` r
mci_amyloid
```

    ## # A tibble: 487 × 6
    ##       id baseline    time_2      time_4      time_6      time_8     
    ##    <dbl> <chr>       <chr>       <chr>       <chr>       <chr>      
    ##  1     1 0.1105487   <NA>        0.109325197 0.104756131 0.107257697
    ##  2     2 0.107481183 0.109157373 0.109457839 0.105729713 0.10661845 
    ##  3     3 0.106087034 0.108744509 0.106065035 <NA>        0.106152357
    ##  4     4 0.109251358 0.108699686 0.110540386 0.107476797 0.111212209
    ##  5     5 0.107950408 0.112273883 0.115139677 0.106606054 0.106052066
    ##  6     6 0.112426974 0.112853415 0.11143945  0.110279277 0.114982747
    ##  7     7 0.112246391 <NA>        0.104251905 0.112485583 0.112055612
    ##  8     8 0.109563372 0.109470828 <NA>        0.108742168 0.110268552
    ##  9     9 0.112101884 0.109781199 0.108832888 <NA>        <NA>       
    ## 10    10 0.1116094   0.111592149 <NA>        <NA>        0.110051296
    ## # ℹ 477 more rows
…
